<?xml version="1.0" encoding="UTF-8"?>
<svg viewBox="0 0 50 40" version="1.1" xmlns="http://www.w3.org/2000/svg" xmlns:xlink="http://www.w3.org/1999/xlink">
    <!-- Generator: Sketch 42 (36781) - http://www.bohemiancoding.com/sketch -->
    <title>Path</title>
    <desc>Created with Sketch.</desc>
    <defs></defs>
    <g id="Page-1" stroke="none" stroke-width="1" fill="none" fill-rule="evenodd">
        <g id="Desktop-HD-Copy" transform="translate(-360.000000, -685.000000)" fill="#000000">
            <g id="Group-9" transform="translate(140.000000, 96.000000)">
                <g id="sidebar">
                    <path d="M270,593.711538 C268.632812,595.778846 266.875,597.557692 264.873047,598.951923 C264.921875,599.384615 264.921875,599.817308 264.921875,600.25 C264.921875,613.615385 254.570312,629 235.722656,629 C229.912109,629 224.541016,627.317308 220,624.480769 C220.78125,624.576923 221.611328,624.625 222.441406,624.625 C227.275391,624.625 231.669922,622.990385 235.185547,620.298077 C230.693359,620.201923 226.933594,617.269231 225.615234,613.278846 C226.25,613.375 226.884766,613.471154 227.519531,613.471154 C228.447266,613.471154 229.130859,613.326923 230.009766,613.086538 C225.322266,612.173077 221.5625,608.086538 221.5625,603.182692 L221.5625,603.086538 C223.125,603.807692 224.736328,604.288462 226.445312,604.336538 C223.662109,602.509615 222.001953,599.432692 222.001953,595.923077 C222.001953,594.096154 222.539062,592.317308 223.417969,590.826923 C228.496094,596.980769 236.064453,600.971154 244.609375,601.403846 C244.414062,600.682692 244.365234,599.865385 244.365234,599.096154 C244.365234,593.519231 248.955078,589 254.619141,589 C257.548828,589 260.234375,590.201923 262.089844,592.173077 C264.433594,591.740385 266.630859,590.875 268.632812,589.721154 C267.851562,592.076923 266.240234,594.096154 264.091797,595.346154 C266.191406,595.057692 268.144531,594.528846 270,593.711538 Z" id="Path"></path>
                </g>
            </g>
        </g>
    </g>
</svg>